forStudents/oscilloscope/AKIP/AM1.CSV

Record Length,10000,,Source,CH1,CH2
Sample Interval,CH1:0.0000000400000 CH2:0.0000000400000,,Second,Volt,Volt
Vertical Units,CH1:V CH2:V,,-0.00020048000,0.01200,-0.08000
Vertical Scale,CH1:0.05 CH2:1.00,,-0.00020044000,0.01200,-0.04000
Vertical Offset,CH1:0.00 CH2:0.00,,-0.00020040000,0.01000,-0.04000
Horizontal Units,s,,-0.00020035999,0.01000,-0.04000
Horizontal Scale,0.0000250000,,-0.00020031999,0.01000,-0.04000
Model Number,¯¶¤”-4115/1A,,-0.00020028000,0.01000,-0.08000
Serial Number,SDS1MJGQ6R6053,,-0.00020024000,0.01000,-0.08000
Software Version,3.01.01.31R20,,-0.00020020000,0.01000,-0.08000
,,,-0.00020015999,0.00800,-0.04000
,,,-0.00020012000,0.01000,-0.04000
,,,-0.00020008000,0.01000,-0.04000
,,,-0.00020004000,0.01000,-0.04000
,,,-0.00019999999,0.01200,-0.04000
,,,-0.00019995999,0.01000,-0.04000
,,,-0.00019992000,0.01000,-0.04000
,,,-0.00019988000,0.01200,-0.04000
,,,-0.00019984000,0.01000,-0.04000
,,,-0.00019979999,0.00800,-0.04000
,,,-0.00019976000,0.01000,-0.04000
,,,-0.00019972000,0.01000,-0.04000
,,,-0.00019968000,0.01000,0.00
,,,-0.00019964000,0.01000,0.00
,,,-0.00019959999,0.01000,0.00
,,,-0.00019956000,0.01200,-0.04000
,,,-0.00019952000,0.01000,-0.04000
,,,-0.00019948000,0.01000,-0.04000
,,,-0.00019943999,0.01000,-0.04000
,,,-0.00019940000,0.01000,-0.04000
,,,-0.00019936000,0.01000,-0.04000
,,,-0.00019932000,0.00800,-0.04000
,,,-0.00019928000,0.00600,0.00
,,,-0.00019923999,0.00800,0.00
,,,-0.00019920000,0.01000,0.00
,,,-0.00019916000,0.01200,0.00
,,,-0.00019912000,0.01200,0.00
,,,-0.00019907999,0.01000,0.00
,,,-0.00019904001,0.00800,0.00
,,,-0.00019900000,0.00800,0.00
,,,-0.00019896000,0.00600,0.00
,,,-0.00019892000,0.00800,0.00
,,,-0.00019887999,0.01000,0.00
,,,-0.00019884000,0.00800,0.00
,,,-0.00019880000,0.00600,0.00
,,,-0.00019876000,0.00400,0.00
,,,-0.00019871999,0.00600,0.00
,,,-0.00019868001,0.01200,0.00
,,,-0.00019864000,0.01200,0.00
,,,-0.00019860000,0.00800,0.00
,,,-0.00019856000,0.00800,0.00
,,,-0.00019851999,0.00800,0.04000
,,,-0.00019848000,0.00600,0.04000
,,,-0.00019844000,0.00800,0.04000
,,,-0.00019840000,0.00800,0.04000
,,,-0.00019835999,0.00600,0.04000
,,,-0.00019832001,0.00800,0.04000
,,,-0.00019828000,0.00800,0.04000
,,,-0.00019824000,0.00600,0.04000
,,,-0.00019820000,0.00600,0.04000
,,,-0.00019815999,0.00600,0.04000
,,,-0.00019812000,0.00400,0.04000
,,,-0.00019808000,0.00400,0.04000
,,,-0.00019804000,0.00400,0.08000
,,,-0.00019799999,0.00600,0.08000
,,,-0.00019796001,0.01000,0.08000
,,,-0.00019792000,0.00800,0.08000
,,,-0.00019788000,0.00400,0.08000
,,,-0.00019784000,0.00400,0.08000
,,,-0.00019779999,0.00400,0.08000
,,,-0.00019776000,0.00400,0.08000
,,,-0.00019772000,0.00600,0.08000
,,,-0.00019768000,0.00600,0.08000
,,,-0.00019763999,0.00600,0.08000
,,,-0.00019760001,0.00600,0.08000
,,,-0.00019756000,0.00400,0.08000
,,,-0.00019752000,0.00200,0.08000
,,,-0.00019748000,0.00400,0.12000
,,,-0.00019743999,0.00400,0.12000
,,,-0.00019740000,0.00200,0.08000
,,,-0.00019736000,0.00200,0.12000
,,,-0.00019732000,0.00,0.12000
,,,-0.00019727999,0.00200,0.12000
,,,-0.00019724001,0.00200,0.12000
,,,-0.00019720000,0.00200,0.12000
,,,-0.00019716000,0.00400,0.12000
,,,-0.00019712000,0.00400,0.12000
,,,-0.00019707999,0.00400,0.12000
,,,-0.00019704000,0.00600,0.12000
,,,-0.00019700000,0.00600,0.16000
,,,-0.00019696000,0.00200,0.16000
,,,-0.00019691999,0.00200,0.12000
,,,-0.00019687999,0.00400,0.12000
,,,-0.00019684000,0.00200,0.12000
,,,-0.00019680000,0.00,0.12000
,,,-0.00019676000,0.00200,0.12000
,,,-0.00019671999,0.00600,0.12000
,,,-0.00019668000,0.00600,0.12000
,,,-0.00019664000,0.00600,0.12000
,,,-0.00019660000,0.00600,0.16000
,,,-0.00019655999,0.00400,0.16000
,,,-0.00019651999,0.00200,0.12000
,,,-0.00019648000,0.00200,0.12000
,,,-0.00019644000,0.00200,0.12000
,,,-0.00019640000,0.00200,0.12000
,,,-0.00019635999,0.00400,0.16000
,,,-0.00019632000,0.00200,0.16000
,,,-0.00019628000,0.00,0.16000
,,,-0.00019624000,0.00,0.16000
,,,-0.00019620000,0.00,0.16000
,,,-0.00019615999,0.00200,0.16000
,,,-0.00019612000,0.00200,0.16000
,,,-0.00019608000,0.00,0.16000
,,,-0.00019604000,0.00,0.16000
,,,-0.00019599999,0.00,0.16000
,,,-0.00019596000,0.00,0.20000
,,,-0.00019592000,0.00200,0.20000
,,,-0.00019588000,0.00200,0.20000
,,,-0.00019584000,0.00,0.20000
,,,-0.00019579999,-0.00200,0.20000
,,,-0.00019576000,-0.00200,0.20000
,,,-0.00019572000,-0.00200,0.20000
,,,-0.00019568000,-0.00200,0.20000
,,,-0.00019563999,-0.00200,0.24000
,,,-0.00019560001,-0.00200,0.24000
,,,-0.00019556000,-0.00200,0.24000
,,,-0.00019552000,-0.00400,0.24000
,,,-0.00019548000,-0.00200,0.24000
,,,-0.00019543999,0.00,0.24000
,,,-0.00019540000,-0.00400,0.24000
,,,-0.00019536000,-0.00600,0.24000
,,,-0.00019532000,-0.00400,0.28000
,,,-0.00019527999,-0.00400,0.28000
,,,-0.00019524001,-0.00400,0.28000
,,,-0.00019520000,-0.00400,0.28000
,,,-0.00019516000,-0.00200,0.28000
,,,-0.00019512000,-0.00200,0.28000
,,,-0.00019507999,-0.00200,0.28000
,,,-0.00019504000,-0.00400,0.28000
,,,-0.00019500000,-0.00400,0.28000
,,,-0.00019496000,-0.00600,0.32000
,,,-0.00019491999,-0.00600,0.32000
,,,-0.00019488001,-0.00600,0.32000
,,,-0.00019484000,-0.00600,0.32000
,,,-0.00019480000,-0.00600,0.32000
,,,-0.00019476000,-0.00600,0.32000
,,,-0.00019471999,-0.00600,0.32000
,,,-0.00019468000,-0.00400,0.32000
,,,-0.00019464000,-0.00400,0.32000
,,,-0.00019460000,-0.00400,0.32000
,,,-0.00019455999,-0.00400,0.32000
,,,-0.00019452001,-0.00400,0.32000
,,,-0.00019448000,-0.00600,0.32000
,,,-0.00019444000,-0.00400,0.32000
,,,-0.00019440000,-0.00600,0.36000
,,,-0.00019435999,-0.00600,0.36000
,,,-0.00019432000,-0.00600,0.36000
,,,-0.00019428000,-0.00400,0.36000
,,,-0.00019424000,-0.00400,0.36000
,,,-0.00019419999,-0.00600,0.36000
,,,-0.00019416001,-0.00600,0.36000
,,,-0.00019412000,-0.00600,0.36000
,,,-0.00019408000,-0.00800,0.36000
,,,-0.00019404000,-0.00800,0.40000
,,,-0.00019399999,-0.00800,0.40000
,,,-0.00019396000,-0.00600,0.36000
,,,-0.00019392000,-0.00600,0.36000
,,,-0.00019388000,-0.00600,0.36000
,,,-0.00019383999,-0.00800,0.36000
,,,-0.00019380001,-0.01200,0.36000
,,,-0.00019376000,-0.01200,0.40000
,,,-0.00019372000,-0.01000,0.40000
,,,-0.00019368000,-0.00800,0.40000
,,,-0.00019363999,-0.00800,0.40000
,,,-0.00019360000,-0.00800,0.40000
,,,-0.00019356000,-0.00800,0.40000
,,,-0.00019352000,-0.00800,0.40000
,,,-0.00019347999,-0.00800,0.40000
,,,-0.00019343999,-0.00800,0.40000
,,,-0.00019340000,-0.00800,0.44000
,,,-0.00019336000,-0.01000,0.44000
,,,-0.00019332000,-0.01400,0.44000
,,,-0.00019327999,-0.01000,0.40000
,,,-0.00019324000,-0.01000,0.40000
,,,-0.00019320000,-0.01200,0.40000
,,,-0.00019316000,-0.01000,0.40000
,,,-0.00019311999,-0.00800,0.44000
,,,-0.00019307999,-0.01000,0.44000
,,,-0.00019304000,-0.01000,0.44000
,,,-0.00019300000,-0.01000,0.44000
,,,-0.00019296000,-0.01000,0.44000
,,,-0.00019291999,-0.01200,0.44000
,,,-0.00019288000,-0.01400,0.48000
,,,-0.00019284000,-0.01200,0.48000
,,,-0.00019280000,-0.01200,0.44000
,,,-0.00019276000,-0.01000,0.44000
,,,-0.00019271999,-0.01000,0.48000
,,,-0.00019268000,-0.01000,0.48000
,,,-0.00019264000,-0.01000,0.48000
,,,-0.00019260000,-0.01200,0.48000
,,,-0.00019255999,-0.01200,0.48000
,,,-0.00019252000,-0.01000,0.48000
,,,-0.00019248000,-0.00800,0.48000
,,,-0.00019244000,-0.01000,0.48000
,,,-0.00019240000,-0.01200,0.48000
,,,-0.00019235999,-0.01200,0.48000
,,,-0.00019232000,-0.01200,0.52000
,,,-0.00019228000,-0.01200,0.52000
,,,-0.00019224000,-0.01400,0.52000
,,,-0.00019219999,-0.01600,0.52000
,,,-0.00019216001,-0.01400,0.52000
,,,-0.00019212000,-0.01400,0.52000
,,,-0.00019208000,-0.01200,0.52000
,,,-0.00019204000,-0.01200,0.52000
,,,-0.00019199999,-0.01400,0.52000
,,,-0.00019196000,-0.01400,0.52000
,,,-0.00019192000,-0.01600,0.52000
,,,-0.00019188000,-0.01400,0.52000
,,,-0.00019183999,-0.01200,0.52000
,,,-0.00019180001,-0.01400,0.52000
,,,-0.00019176000,-0.01400,0.52000
,,,-0.00019172000,-0.01400,0.52000
,,,-0.00019168000,-0.01400,0.52000
,,,-0.00019163999,-0.01400,0.52000
,,,-0.00019160000,-0.01400,0.52000
,,,-0.00019156000,-0.01400,0.56000
,,,-0.00019152000,-0.01600,0.56000
,,,-0.00019147999,-0.01600,0.56000
,,,-0.00019144001,-0.01600,0.56000
,,,-0.00019140000,-0.01600,0.56000
,,,-0.00019136000,-0.01600,0.56000
,,,-0.00019132000,-0.01800,0.56000
,,,-0.00019127999,-0.02000,0.56000
,,,-0.00019124000,-0.02000,0.56000
,,,-0.00019120000,-0.02000,0.60000
,,,-0.00019116000,-0.01800,0.60000
,,,-0.00019111999,-0.01400,0.60000
,,,-0.00019108001,-0.01400,0.60000
,,,-0.00019104000,-0.01600,0.56000
,,,-0.00019100000,-0.01600,0.60000
,,,-0.00019096000,-0.01800,0.60000
,,,-0.00019091999,-0.01800,0.60000
,,,-0.00019088000,-0.01800,0.60000
,,,-0.00019084000,-0.02000,0.60000
,,,-0.00019080000,-0.01800,0.60000
,,,-0.00019075999,-0.01400,0.60000
,,,-0.00019072001,-0.01400,0.60000
,,,-0.00019068000,-0.01600,0.60000
,,,-0.00019064000,-0.01600,0.60000
,,,-0.00019060000,-0.01800,0.60000
,,,-0.00019055999,-0.02000,0.60000
,,,-0.00019052000,-0.02000,0.60000
,,,-0.00019048000,-0.02000,0.60000
,,,-0.00019044000,-0.01800,0.64000
,,,-0.00019039999,-0.01800,0.64000
,,,-0.00019036001,-0.02000,0.64000
,,,-0.00019032000,-0.01800,0.64000
,,,-0.00019028000,-0.01800,0.64000
,,,-0.00019024000,-0.02000,0.64000
,,,-0.00019019999,-0.02000,0.64000
,,,-0.00019016000,-0.02000,0.64000
,,,-0.00019012000,-0.02000,0.64000
,,,-0.00019008000,-0.01800,0.64000
,,,-0.00019003999,-0.01600,0.64000
,,,-0.00019000001,-0.01600,0.64000
,,,-0.00018996000,-0.01800,0.64000
,,,-0.00018992000,-0.01600,0.64000
,,,-0.00018988000,-0.01800,0.64000
,,,-0.00018983999,-0.02200,0.64000
,,,-0.00018980000,-0.02000,0.64000
,,,-0.00018976000,-0.02000,0.64000
,,,-0.00018972000,-0.02200,0.64000
,,,-0.00018967999,-0.02000,0.64000
,,,-0.00018963999,-0.02000,0.64000
,,,-0.00018960000,-0.02000,0.64000
,,,-0.00018956000,-0.01800,0.64000
,,,-0.00018952000,-0.01800,0.68000
,,,-0.00018947999,-0.02200,0.68000
,,,-0.00018944000,-0.02200,0.68000
,,,-0.00018940000,-0.02200,0.68000
,,,-0.00018936000,-0.02400,0.68000
,,,-0.00018932000,-0.02400,0.68000
,,,-0.00018927999,-0.02000,0.68000
,,,-0.00018924000,-0.02000,0.68000
,,,-0.00018920000,-0.02000,0.68000
,,,-0.00018916000,-0.02000,0.72000
,,,-0.00018911999,-0.01800,0.72000
,,,-0.00018908000,-0.01800,0.68000
,,,-0.00018904000,-0.02000,0.72000
,,,-0.00018900000,-0.02200,0.72000
,,,-0.00018896000,-0.02200,0.72000
,,,-0.00018891999,-0.02400,0.72000
,,,-0.00018888000,-0.02200,0.72000
,,,-0.00018884000,-0.02200,0.72000
,,,-0.00018880000,-0.02600,0.72000
,,,-0.00018875999,-0.02600,0.72000
,,,-0.00018872001,-0.02200,0.72000
,,,-0.00018868000,-0.02200,0.72000
,,,-0.00018864000,-0.02200,0.72000
,,,-0.00018860000,-0.02200,0.72000
,,,-0.00018855999,-0.02400,0.72000
,,,-0.00018852000,-0.02200,0.76000
,,,-0.00018848000,-0.02200,0.76000
,,,-0.00018844000,-0.02200,0.76000
,,,-0.00018839999,-0.02200,0.76000
,,,-0.00018836001,-0.02000,0.72000
,,,-0.00018832000,-0.02400,0.72000
,,,-0.00018828000,-0.02400,0.72000
,,,-0.00018824000,-0.02200,0.72000
,,,-0.00018819999,-0.02600,0.72000
,,,-0.00018816000,-0.02400,0.72000
,,,-0.00018812000,-0.02400,0.76000
,,,-0.00018808000,-0.02600,0.76000
,,,-0.00018803999,-0.02400,0.76000
,,,-0.00018800001,-0.02400,0.76000
,,,-0.00018796000,-0.02400,0.76000
,,,-0.00018792000,-0.02200,0.76000
,,,-0.00018788000,-0.02600,0.76000
,,,-0.00018783999,-0.02800,0.76000
,,,-0.00018780000,-0.02800,0.76000
,,,-0.00018776000,-0.02600,0.76000
,,,-0.00018772000,-0.02600,0.76000
,,,-0.00018767999,-0.02600,0.76000
,,,-0.00018764001,-0.02600,0.76000
,,,-0.00018760000,-0.02600,0.80000
,,,-0.00018756000,-0.02600,0.80000
,,,-0.00018752000,-0.02400,0.80000
,,,-0.00018747999,-0.02400,0.80000
,,,-0.00018744000,-0.02400,0.80000
,,,-0.00018740000,-0.02400,0.80000
,,,-0.00018736000,-0.02600,0.80000
,,,-0.00018731999,-0.02800,0.80000
,,,-0.00018728001,-0.02800,0.80000
,,,-0.00018724000,-0.03000,0.84000
,,,-0.00018720000,-0.03000,0.84000
,,,-0.00018716000,-0.02800,0.84000
,,,-0.00018711999,-0.02800,0.84000
,,,-0.00018708000,-0.02800,0.84000
,,,-0.00018704000,-0.02800,0.88000
,,,-0.00018700000,-0.03000,0.88000
,,,-0.00018695999,-0.03200,0.88000
,,,-0.00018692001,-0.03000,0.88000
,,,-0.00018688000,-0.03200,0.88000
,,,-0.00018684000,-0.03200,0.92000
,,,-0.00018680000,-0.03000,0.92000
,,,-0.00018675999,-0.03000,0.92000
,,,-0.00018672000,-0.02600,0.92000
,,,-0.00018668000,-0.02600,0.92000
,,,-0.00018664000,-0.03000,0.92000
,,,-0.00018659999,-0.02800,0.92000
,,,-0.00018656001,-0.02800,0.92000
,,,-0.00018652000,-0.03000,0.92000
,,,-0.00018648000,-0.03200,0.92000
,,,-0.00018644000,-0.03000,0.92000
,,,-0.00018639999,-0.02800,0.92000
,,,-0.00018636000,-0.02800,0.92000
,,,-0.00018632000,-0.03000,0.92000
,,,-0.00018628000,-0.03200,0.92000
,,,-0.00018623999,-0.03200,0.92000
,,,-0.00018619999,-0.03400,0.92000
,,,-0.00018616000,-0.03400,0.92000
,,,-0.00018612000,-0.03400,0.96000
,,,-0.00018608000,-0.03200,0.96000
,,,-0.00018603999,-0.03200,0.96000
,,,-0.00018600000,-0.03200,0.96000
,,,-0.00018596000,-0.03200,0.96000
,,,-0.00018592000,-0.03400,0.96000
,,,-0.00018588000,-0.03200,0.96000
,,,-0.00018583999,-0.03400,0.96000
,,,-0.00018580000,-0.03600,0.96000
,,,-0.00018576000,-0.03200,0.96000
,,,-0.00018572000,-0.03000,0.96000
,,,-0.00018567999,-0.03000,0.96000
,,,-0.00018564000,-0.03000,0.96000
,,,-0.00018560000,-0.03400,0.96000
,,,-0.00018556000,-0.03400,1.00000
,,,-0.00018552000,-0.03400,1.00000
,,,-0.00018547999,-0.03400,1.00000
,,,-0.00018544000,-0.03600,1.00000
,,,-0.00018540000,-0.03600,1.00000
,,,-0.00018536000,-0.03600,1.00000
,,,-0.00018531999,-0.03800,1.00000
,,,-0.00018528001,-0.03600,1.00000
,,,-0.00018524000,-0.03600,1.00000
,,,-0.00018520000,-0.03600,1.00000
,,,-0.00018516000,-0.03400,1.00000
,,,-0.00018511999,-0.03200,1.00000
,,,-0.00018508000,-0.03200,1.00000
,,,-0.00018504000,-0.03200,0.96000
,,,-0.00018500000,-0.03200,0.96000
,,,-0.00018495999,-0.03400,0.96000
,,,-0.00018492001,-0.03400,1.00000
,,,-0.00018488000,-0.03400,1.00000
,,,-0.00018484000,-0.03400,1.00000
,,,-0.00018480000,-0.03400,1.00000
,,,-0.00018475999,-0.03200,0.96000
,,,-0.00018472000,-0.03200,0.96000
,,,-0.00018468000,-0.03400,1.00000
,,,-0.00018464000,-0.03400,1.00000
,,,-0.00018459999,-0.03400,1.00000
,,,-0.00018456001,-0.03400,1.00000
,,,-0.00018452000,-0.03400,1.04000
,,,-0.00018448000,-0.03400,1.04000
,,,-0.00018444000,-0.03400,1.04000
,,,-0.00018439999,-0.03600,1.00000
,,,-0.00018436000,-0.03800,1.00000
,,,-0.00018432000,-0.03600,1.04000
,,,-0.00018428000,-0.03600,1.04000
,,,-0.00018423999,-0.03600,1.04000
,,,-0.00018420001,-0.03600,1.04000
,,,-0.00018416000,-0.03600,1.04000
,,,-0.00018412000,-0.03400,1.04000
,,,-0.00018408000,-0.03400,1.04000
,,,-0.00018403999,-0.03600,1.04000
,,,-0.00018400000,-0.03800,1.04000
,,,-0.00018396000,-0.03800,1.04000
,,,-0.00018392000,-0.03800,1.08000
,,,-0.00018387999,-0.03600,1.08000
,,,-0.00018384001,-0.03600,1.08000
,,,-0.00018380000,-0.04000,1.08000
,,,-0.00018376000,-0.04000,1.08000
,,,-0.00018372000,-0.03800,1.04000
,,,-0.00018367999,-0.04000,1.08000
,,,-0.00018364000,-0.04200,1.08000
,,,-0.00018360000,-0.04000,1.08000
,,,-0.00018356000,-0.03800,1.08000
,,,-0.00018351999,-0.03800,1.12000
,,,-0.00018348001,-0.03800,1.12000
,,,-0.00018344000,-0.04000,1.12000
,,,-0.00018340000,-0.04000,1.12000
,,,-0.00018336000,-0.04000,1.12000
,,,-0.00018331999,-0.04400,1.12000
,,,-0.00018328000,-0.04400,1.12000
,,,-0.00018324000,-0.04200,1.16000
,,,-0.00018320000,-0.04200,1.16000
,,,-0.00018315999,-0.04000,1.16000
,,,-0.00018312001,-0.04000,1.16000
,,,-0.00018308000,-0.04000,1.16000
,,,-0.00018304000,-0.03800,1.16000
,,,-0.00018300000,-0.03800,1.12000
,,,-0.00018295999,-0.04200,1.12000
,,,-0.00018292000,-0.04400,1.16000
,,,-0.00018288000,-0.04400,1.16000
,,,-0.00018284000,-0.04400,1.16000
,,,-0.00018279999,-0.04400,1.16000
,,,-0.00018275999,-0.04200,1.16000
,,,-0.00018272000,-0.04000,1.16000
,,,-0.00018268000,-0.04200,1.16000
,,,-0.00018264000,-0.04400,1.16000
,,,-0.00018259999,-0.04600,1.16000
,,,-0.00018256000,-0.04600,1.16000
,,,-0.00018252000,-0.04200,1.16000
,,,-0.00018248000,-0.04000,1.16000
,,,-0.00018244000,-0.03800,1.16000
,,,-0.00018239999,-0.03800,1.16000
,,,-0.00018236000,-0.04000,1.16000
,,,-0.00018232000,-0.04200,1.16000
,,,-0.00018228000,-0.04200,1.16000
,,,-0.00018223999,-0.04200,1.16000
,,,-0.00018220000,-0.04400,1.16000
,,,-0.00018216000,-0.04000,1.16000
,,,-0.00018212000,-0.04000,1.16000
,,,-0.00018208000,-0.04200,1.16000
,,,-0.00018203999,-0.04200,1.16000
,,,-0.00018200000,-0.04200,1.16000
,,,-0.00018196000,-0.04200,1.16000
,,,-0.00018192000,-0.04400,1.16000
,,,-0.00018187999,-0.04600,1.20000
,,,-0.00018184001,-0.04600,1.20000
,,,-0.00018180000,-0.04400,1.20000
,,,-0.00018176000,-0.04400,1.20000
,,,-0.00018172000,-0.04400,1.20000
,,,-0.00018167999,-0.04400,1.16000
,,,-0.00018164000,-0.04400,1.16000
,,,-0.00018160000,-0.04600,1.20000
,,,-0.00018156000,-0.04400,1.20000
,,,-0.00018151999,-0.04400,1.20000
,,,-0.00018148001,-0.04400,1.20000
,,,-0.00018144000,-0.04200,1.20000
,,,-0.00018140000,-0.04200,1.20000
,,,-0.00018136000,-0.04000,1.24000
,,,-0.00018131999,-0.04200,1.24000
,,,-0.00018128000,-0.04600,1.20000
,,,-0.00018124000,-0.04600,1.20000
,,,-0.00018120000,-0.04800,1.24000
,,,-0.00018115999,-0.04800,1.24000
,,,-0.00018112001,-0.04600,1.28000
,,,-0.00018108000,-0.04400,1.28000
,,,-0.00018104000,-0.04600,1.24000
,,,-0.00018100000,-0.04600,1.24000
,,,-0.00018095999,-0.04800,1.24000
,,,-0.00018092000,-0.05200,1.24000
,,,-0.00018088000,-0.05000,1.24000
,,,-0.00018084000,-0.04800,1.28000
,,,-0.00018079999,-0.04800,1.28000
,,,-0.00018076001,-0.04400,1.28000
,,,-0.00018072000,-0.04000,1.28000
,,,-0.00018068000,-0.04200,1.28000
,,,-0.00018064000,-0.04400,1.28000
,,,-0.00018059999,-0.04600,1.28000
,,,-0.00018056000,-0.04600,1.28000
,,,-0.00018052000,-0.04400,1.28000
,,,-0.00018048000,-0.04800,1.32000
,,,-0.00018043999,-0.05000,1.32000
,,,-0.00018040001,-0.04800,1.32000
,,,-0.00018036000,-0.04800,1.28000
,,,-0.00018032000,-0.05000,1.28000
,,,-0.00018028000,-0.04800,1.28000
,,,-0.00018023999,-0.04600,1.28000
,,,-0.00018020000,-0.05000,1.28000
,,,-0.00018016000,-0.05200,1.32000
,,,-0.00018012000,-0.05200,1.32000
,,,-0.00018007999,-0.05400,1.32000
,,,-0.00018004001,-0.05000,1.32000
,,,-0.00018000000,-0.04600,1.32000
,,,-0.00017996000,-0.04800,1.32000
,,,-0.00017992000,-0.05000,1.32000
,,,-0.00017987999,-0.05200,1.32000
,,,-0.00017984000,-0.05200,1.36000
,,,-0.00017980000,-0.05400,1.36000
,,,-0.00017976000,-0.05200,1.36000
,,,-0.00017971999,-0.05000,1.36000
,,,-0.00017968001,-0.05000,1.36000
,,,-0.00017964000,-0.04800,1.36000
,,,-0.00017960000,-0.04800,1.36000
,,,-0.00017956000,-0.05000,1.36000
,,,-0.00017951999,-0.05000,1.36000
,,,-0.00017948000,-0.05200,1.36000
,,,-0.00017944000,-0.05200,1.40000
,,,-0.00017940000,-0.05400,1.40000
,,,-0.00017935999,-0.05600,1.36000
,,,-0.00017931999,-0.05400,1.36000
,,,-0.00017928000,-0.05200,1.36000
,,,-0.00017924000,-0.05400,1.40000
,,,-0.00017920000,-0.05400,1.40000
,,,-0.00017915999,-0.05200,1.36000
,,,-0.00017912000,-0.05200,1.36000
,,,-0.00017908000,-0.05200,1.40000
,,,-0.00017904000,-0.05200,1.40000
,,,-0.00017900000,-0.05200,1.40000
,,,-0.00017895999,-0.05200,1.40000
,,,-0.00017892000,-0.05200,1.40000
,,,-0.00017888000,-0.05200,1.40000
,,,-0.00017884000,-0.05400,1.40000
,,,-0.00017879999,-0.05400,1.40000
,,,-0.00017876000,-0.05400,1.40000
,,,-0.00017872000,-0.05200,1.40000
,,,-0.00017868000,-0.05200,1.40000
,,,-0.00017864000,-0.05400,1.40000
,,,-0.00017859999,-0.05400,1.40000
,,,-0.00017856000,-0.05400,1.40000
,,,-0.00017852000,-0.05600,1.40000
,,,-0.00017848000,-0.05600,1.40000
,,,-0.00017843999,-0.05600,1.44000
,,,-0.00017840001,-0.05600,1.44000
,,,-0.00017836000,-0.05600,1.40000
,,,-0.00017832000,-0.05400,1.40000
,,,-0.00017828000,-0.05400,1.40000
,,,-0.00017823999,-0.05400,1.44000
,,,-0.00017820000,-0.05400,1.44000
,,,-0.00017816000,-0.05400,1.44000
,,,-0.00017812000,-0.05400,1.44000
,,,-0.00017807999,-0.05400,1.44000
,,,-0.00017804001,-0.05400,1.44000
,,,-0.00017800000,-0.05600,1.44000
,,,-0.00017796000,-0.05800,1.44000
,,,-0.00017792000,-0.05600,1.44000
,,,-0.00017787999,-0.05400,1.44000
,,,-0.00017784000,-0.05600,1.44000
